<svg xmlns="http://www.w3.org/2000/svg" viewBox="-5 -5 50 50" height="30" width="30">
  <defs xmlns="http://www.w3.org/2000/svg">
    <filter id="f1">
      <feGaussianBlur stdDeviation="2"/>
    </filter>
  </defs>
  <path d="M36.75,39.08h0A2.49,2.49,0,0,1,35,38.35l-15-15-15,15a2.48,2.48,0,0,1-1.76.73h0A2.5,2.5,0,0,1,1.4,34.81l15-15-15-15A2.5,2.5,0,0,1,3.16.5h0a2.44,2.44,0,0,1,1.76.73l15,15,15-15A2.49,2.49,0,0,1,36.75.5h0a2.45,2.45,0,0,1,1.77.73,2.5,2.5,0,0,1,0,3.53l-15,15,15,15a2.52,2.52,0,0,1,0,3.54A2.49,2.49,0,0,1,36.75,39.08Z" fill="#000" filter="url(#f1)"/>
  <path d="M36.75,39.08h0A2.49,2.49,0,0,1,35,38.35l-15-15-15,15a2.48,2.48,0,0,1-1.76.73h0A2.5,2.5,0,0,1,1.4,34.81l15-15-15-15A2.5,2.5,0,0,1,3.16.5h0a2.44,2.44,0,0,1,1.76.73l15,15,15-15A2.49,2.49,0,0,1,36.75.5h0a2.45,2.45,0,0,1,1.77.73,2.5,2.5,0,0,1,0,3.53l-15,15,15,15a2.52,2.52,0,0,1,0,3.54A2.49,2.49,0,0,1,36.75,39.08Z" fill="#fff"/>
</svg>
