<svg xmlns="http://www.w3.org/2000/svg" viewBox="-5 -5 50 50" height="30" width="30">
  <path d="M26.09,20.08h12a.37.37,0,0,1,.26.64L20.27,38.85a.38.38,0,0,1-.54,0L1.61,20.72a.37.37,0,0,1,.26-.64h12a.38.38,0,0,0,.38-.38V1.42A.38.38,0,0,1,14.67,1H25.33a.38.38,0,0,1,.38.38V19.7A.38.38,0,0,0,26.09,20.08Z" fill="#000"/>
</svg>
