<?xml version="1.0" encoding="utf-8"?>
<!-- Generator: Adobe Illustrator 23.1.0, SVG Export Plug-In . SVG Version: 6.00 Build 0)  -->
<svg version="1.1" id="Layer_1" xmlns="http://www.w3.org/2000/svg" xmlns:xlink="http://www.w3.org/1999/xlink" x="0px" y="0px"
	 viewBox="0 0 30 30" style="enable-background:new 0 0 30 30;" xml:space="preserve">
<style type="text/css">
	.st0{stroke:#000000;stroke-width:0.75;stroke-miterlimit:10;}
</style>
<path class="st0" d="M25.4,9.2L21,4.8c-0.3-0.3-0.8-0.3-1.1,0L6.8,17.9c-0.1,0.1-0.2,0.2-0.2,0.3c0,0-1.9,6.5-1.9,6.5
	c-0.1,0.2,0,0.4,0.1,0.6c0.1,0.1,0.3,0.2,0.6,0.1c0,0,6.5-1.9,6.5-1.9c0.1,0,0.2-0.1,0.3-0.2l13.1-13.1C25.7,10,25.7,9.5,25.4,9.2z
	 M5.6,24.6c0.5-1.8,1.3-4.6,1.6-5.7l4.1,4.1C10.2,23.2,7.4,24,5.6,24.6z M11.7,22.8l0.3-0.3l-4.4-4.4l-0.3,0.3l0,0l0,0l9.1-9.1
	l4.4,4.4L11.7,22.8C11.7,22.8,11.7,22.8,11.7,22.8z M21.4,13.2L17,8.8l3-3c0.3-0.3,0.7-0.3,0.9,0l3.5,3.5c0.3,0.3,0.3,0.7,0,0.9
	L21.4,13.2z"/>
</svg>
